simple_pim/model/axi/sim/iverilog/test.vcd
$date
	Fri Mar 21 14:04:58 2025
$end
$version
	Icarus Verilog
$end
$timescale
	1ps
$end
$scope module testbench $end
$scope module uut $end
$var wire 1 ! clk $end
$var wire 1 " rst $end
$var wire 16 # s_axi_araddr [15:0] $end
$var wire 2 $ s_axi_arburst [1:0] $end
$var wire 4 % s_axi_arcache [3:0] $end
$var wire 8 & s_axi_arid [7:0] $end
$var wire 8 ' s_axi_arlen [7:0] $end
$var wire 1 ( s_axi_arlock $end
$var wire 3 ) s_axi_arprot [2:0] $end
$var wire 1 * s_axi_arready $end
$var wire 3 + s_axi_arsize [2:0] $end
$var wire 1 , s_axi_arvalid $end
$var wire 16 - s_axi_awaddr [15:0] $end
$var wire 2 . s_axi_awburst [1:0] $end
$var wire 4 / s_axi_awcache [3:0] $end
$var wire 8 0 s_axi_awid [7:0] $end
$var wire 8 1 s_axi_awlen [7:0] $end
$var wire 1 2 s_axi_awlock $end
$var wire 3 3 s_axi_awprot [2:0] $end
$var wire 1 4 s_axi_awready $end
$var wire 3 5 s_axi_awsize [2:0] $end
$var wire 1 6 s_axi_awvalid $end
$var wire 8 7 s_axi_bid [7:0] $end
$var wire 1 8 s_axi_bready $end
$var wire 2 9 s_axi_bresp [1:0] $end
$var wire 1 : s_axi_bvalid $end
$var wire 32 ; s_axi_rdata [31:0] $end
$var wire 8 < s_axi_rid [7:0] $end
$var wire 1 = s_axi_rlast $end
$var wire 1 > s_axi_rready $end
$var wire 2 ? s_axi_rresp [1:0] $end
$var wire 1 @ s_axi_rvalid $end
$var wire 32 A s_axi_wdata [31:0] $end
$var wire 1 B s_axi_wlast $end
$var wire 1 C s_axi_wready $end
$var wire 4 D s_axi_wstrb [3:0] $end
$var wire 1 E s_axi_wvalid $end
$var wire 14 F write_addr_valid [13:0] $end
$var wire 14 G s_axi_awaddr_valid [13:0] $end
$var wire 14 H s_axi_araddr_valid [13:0] $end
$var wire 14 I read_addr_valid [13:0] $end
$var wire 1 J mode $end
$var reg 32 K count [31:0] $end
$var reg 32 L mac_out_reg [31:0] $end
$var reg 1 M mem_rd_en $end
$var reg 1 N mem_wr_en $end
$var reg 1 O p_en $end
$var reg 16 P read_addr_next [15:0] $end
$var reg 16 Q read_addr_reg [15:0] $end
$var reg 2 R read_burst_next [1:0] $end
$var reg 2 S read_burst_reg [1:0] $end
$var reg 8 T read_count_next [7:0] $end
$var reg 8 U read_count_reg [7:0] $end
$var reg 8 V read_id_next [7:0] $end
$var reg 8 W read_id_reg [7:0] $end
$var reg 3 X read_size_next [2:0] $end
$var reg 3 Y read_size_reg [2:0] $end
$var reg 1 Z read_state_next $end
$var reg 1 [ read_state_reg $end
$var reg 16384 \ rwl [16383:0] $end
$var reg 1 ] s_axi_arready_next $end
$var reg 1 ^ s_axi_arready_reg $end
$var reg 1 _ s_axi_awready_next $end
$var reg 1 ` s_axi_awready_reg $end
$var reg 8 a s_axi_bid_next [7:0] $end
$var reg 8 b s_axi_bid_reg [7:0] $end
$var reg 1 c s_axi_bvalid_next $end
$var reg 1 d s_axi_bvalid_reg $end
$var reg 32 e s_axi_rdata_pipe_reg [31:0] $end
$var reg 32 f s_axi_rdata_reg [31:0] $end
$var reg 8 g s_axi_rid_next [7:0] $end
$var reg 8 h s_axi_rid_pipe_reg [7:0] $end
$var reg 8 i s_axi_rid_reg [7:0] $end
$var reg 1 j s_axi_rlast_next $end
$var reg 1 k s_axi_rlast_pipe_reg $end
$var reg 1 l s_axi_rlast_reg $end
$var reg 1 m s_axi_rvalid_next $end
$var reg 1 n s_axi_rvalid_pipe_reg $end
$var reg 1 o s_axi_rvalid_reg $end
$var reg 1 p s_axi_wready_next $end
$var reg 1 q s_axi_wready_reg $end
$var reg 5 r shift_cnt [4:0] $end
$var reg 32 s sum_acc_result [31:0] $end
$var reg 32 t temp_sum_acc_result [31:0] $end
$var reg 1 u w_en $end
$var reg 16 v write_addr_next [15:0] $end
$var reg 16 w write_addr_reg [15:0] $end
$var reg 2 x write_burst_next [1:0] $end
$var reg 2 y write_burst_reg [1:0] $end
$var reg 8 z write_count_next [7:0] $end
$var reg 8 { write_count_reg [7:0] $end
$var reg 8 | write_id_next [7:0] $end
$var reg 8 } write_id_reg [7:0] $end
$var reg 3 ~ write_size_next [2:0] $end
$var reg 3 !" write_size_reg [2:0] $end
$var reg 2 "" write_state_next [1:0] $end
$var reg 2 #" write_state_reg [1:0] $end
$var integer 32 $" i [31:0] $end
$var integer 32 %" j [31:0] $end
$var integer 32 &" k [31:0] $end
$upscope $end
$upscope $end
$enddefinitions $end
#0
$dumpvars
bx &"
b100000000000000 %"
b100000 $"
b0 #"
b0 ""
b0 !"
b0 ~
b0 }
b0 |
b0 {
b0 z
b0 y
b0 x
b0 w
b0 v
xu
bx t
b0 s
b0 r
0q
0p
0o
0n
0m
0l
0k
0j
b0 i
b0 h
b0 g
b0 f
b0 e
0d
0c
b0 b
b0 a
0`
1_
0^
1]
b0 \
0[
0Z
b0 Y
b0 X
b0 W
b0 V
b0 U
b0 T
b0 S
b0 R
b0 Q
b0 P
0O
0N
0M
b0 L
b0 K
0J
b0 I
b0 H
b0 G
b0 F
0E
b0 D
0C
0B
b0 A
0@
b0 ?
0>
0=
b0 <
b0 ;
0:
b0 9
08
b0 7
06
b0 5
04
bx 3
x2
b0 1
b0 0
bx /
b0 .
b0 -
0,
b0 +
0*
bx )
x(
b0 '
b0 &
bx %
b0 $
b0 #
1"
0!
$end
#5000
1_
1]
04
0`
0*
0^
b100000 $"
0!
#10000
1]
1_
0*
0^
04
0`
0"
b100000 $"
0!
#15000
1_
1]
b10010010000101010011010100100100 \
14
1`
1*
1^
b100000 $"
0!
#20000
b110001111100000101011001100011 \
b1011110100000 G
b1 ""
1p
b1 x
b10 ~
b101111010000001 v
0_
b100000 $"
16
b1 .
b10 5
b101111010000001 -
0!
#25000
b1011110100000 F
1u
1c
b11111111 z
1N
b10000110101110010111101100001101 \
1C
1q
04
0`
b1 y
b10 !"
b101111010000001 w
b1 #"
1_
0p
b1 x
b10 ~
b101111010000101 v
b0 ""
1E
1B
b1111 D
b100100001001101011000001001 A
06
b100000 $"
0!
#30000
b1011110100001 F
b11000110110111111001100110001101 \
1:
1d
0C
0q
14
1`
b11111111 {
b101111010000101 w
b0 #"
xu
b0 ""
0p
0c
1_
b11111111 z
b101111010000101 v
0N
b100000 $"
18
0E
0!
#35000
b10000000111100111110001100000001 \
0:
0d
0c
1_
08
b100000 $"
0!
#40000
b10000110110101111100110100001101 \
b10000100011001 G
b1 ""
1p
b0 z
b1000010001100101 v
b1 |
0_
b100000 $"
16
b1000010001100101 -
b1 0
0!
#45000
b10000100011001 F
1u
1c
b1 a
1N
b10111011001000111111000101110110 \
1C
1q
04
0`
b0 {
b1000010001100101 w
b1 }
b1 #"
1_
0p
b11111111 z
b1000010001101001 v
b1 |
b0 ""
1E
b1001001101110101001000010010 A
06
b100000 $"
0!
#50000
b10000100011010 F
b10011110100011011100110100111101 \
1:
1d
b1 7
b1 b
0C
0q
14
1`
b11111111 {
b1000010001101001 w
b0 #"
xu
b0 ""
0p
0c
b1 a
1_
b11111111 z
b1000010001101001 v
0N
b100000 $"
18
0E
0!
#55000
b11111100111111011110100111111001 \
0:
0d
0c
1_
08
b100000 $"
0!
#60000
b1100011001101110010010011000110 \
b1010111111011 G
b1 ""
1p
b0 z
b101011111101101 v
b10 |
0_
b100000 $"
16
b101011111101101 -
b10 0
0!
#65000
b1010111111011 F
1u
1c
b10 a
1N
b1100010111101111000010011000101 \
1C
1q
04
0`
b0 {
b101011111101101 w
b10 }
b1 #"
1_
0p
b11111111 z
b101011111110001 v
b10 |
b0 ""
1E
b11000110001011011111011110001100 A
06
b100000 $"
0!
#70000
b1010111111100 F
b1010101000100111101001010101010 \
1:
1d
b10 7
b10 b
0C
0q
14
1`
b11111111 {
b101011111110001 w
b0 #"
xu
b0 ""
0p
0c
b10 a
1_
b11111111 z
b101011111110001 v
0N
b100000 $"
18
0E
0!
#75000
b1001001100101101011000010010 \
0:
0d
0c
1_
08
b100000 $"
0!
#80000
b11000111111011001101101110001111 \
b11110111111001 G
b1 ""
1p
b0 z
b1111011111100101 v
b11 |
0_
b100000 $"
16
b1111011111100101 -
b11 0
0!
#85000
b11110111111001 F
1u
1c
b11 a
1N
b11111001001100000110100111110010 \
1C
1q
04
0`
b0 {
b1111011111100101 w
b11 }
b1 #"
1_
0p
b11111111 z
b1111011111101001 v
b11 |
b0 ""
1E
b111011110100100111001001110111 A
06
b100000 $"
0!
#90000
b11110111111010 F
b1100111011101101001011011001110 \
1:
1d
b11 7
b11 b
0C
0q
14
1`
b11111111 {
b1111011111101001 w
b0 #"
xu
b0 ""
0p
0c
b11 a
1_
b11111111 z
b1111011111101001 v
0N
b100000 $"
18
0E
0!
#95000
b10101110010110000100100101011100 \
0:
0d
0c
1_
08
b100000 $"
0!
#100000
b1011110100011100010100010111101 \
b1111010111010 G
b1 ""
1p
b0 z
b111101011101000 v
b100 |
0_
b100000 $"
16
b111101011101000 -
b100 0
0!
#105000
b1111010111010 F
1u
1c
b100 a
1N
b10110101010110101100000101101 \
1C
1q
04
0`
b0 {
b111101011101000 w
b100 }
b1 #"
1_
0p
b11111111 z
b111101011101100 v
b100 |
b0 ""
1E
b1100010110010100100111011000101 A
06
b100000 $"
0!
#110000
b1111010111011 F
b110010101001110010011001100101 \
1:
1d
b100 7
b100 b
0C
0q
14
1`
b11111111 {
b111101011101100 w
b0 #"
xu
b0 ""
0p
0c
b100 a
1_
b11111111 z
b111101011101100 v
0N
b100000 $"
18
0E
0!
#115000
b1000000001110110010001010000000 \
0:
0d
0c
1_
08
b100000 $"
0!
#120000
b10010000011001000010000100100000 \
b1100010011000 G
b1 ""
1p
b0 z
b110001001100011 v
b101 |
0_
b100000 $"
16
b110001001100011 -
b101 0
0!
#125000
b1100010011000 F
1u
1c
b101 a
1N
b11010101011110000100010110101010 \
1C
1q
04
0`
b0 {
b110001001100011 w
b101 }
b1 #"
1_
0p
b11111111 z
b110001001100111 v
b101 |
b0 ""
1E
b10000101011100111000011100001010 A
06
b100000 $"
0!
#130000
b1100010011001 F
b1001110110011001100110010011101 \
1:
1d
b101 7
b101 b
0C
0q
14
1`
b11111111 {
b110001001100111 w
b0 #"
xu
b0 ""
0p
0c
b101 a
1_
b11111111 z
b110001001100111 v
0N
b100000 $"
18
0E
0!
#135000
b110101111000011100000001101 \
0:
0d
0c
1_
08
b100000 $"
0!
#140000
b101001101001111101011001010011 \
b111110100101 G
b1 ""
1p
b0 z
b11111010010110 v
b110 |
0_
b100000 $"
16
b11111010010110 -
b110 0
0!
#145000
b111110100101 F
1u
1c
b110 a
1N
b10110101100111111101110101101011 \
1C
1q
04
0`
b0 {
b11111010010110 w
b110 }
b1 #"
1_
0p
b11111111 z
b11111010011010 v
b110 |
b0 ""
1E
b1001100000111011100000010011 A
06
b100000 $"
0!
#150000
b111110100110 F
b1101010101001100010101011010101 \
1:
1d
b110 7
b110 b
0C
0q
14
1`
b11111111 {
b11111010011010 w
b0 #"
xu
b0 ""
0p
0c
b110 a
1_
b11111111 z
b11111010011010 v
0N
b100000 $"
18
0E
0!
#155000
b10001110111111111110100100011101 \
0:
0d
0c
1_
08
b100000 $"
0!
#160000
b1100111110001010111001011001111 \
b1001010000000 G
b1 ""
1p
b0 z
b100101000000010 v
b111 |
0_
b100000 $"
16
b100101000000010 -
b111 0
0!
#165000
b1001010000000 F
1u
1c
b111 a
1N
b10010001100001000100100100100011 \
1C
1q
04
0`
b0 {
b100101000000010 w
b111 }
b1 #"
1_
0p
b11111111 z
b100101000000110 v
b111 |
b0 ""
1E
b1010111010101100011111010101110 A
06
b100000 $"
0!
#170000
b1001010000001 F
b10000101000010010110010100001010 \
1:
1d
b111 7
b111 b
0C
0q
14
1`
b11111111 {
b100101000000110 w
b0 #"
xu
b0 ""
0p
0c
b111 a
1_
b11111111 z
b100101000000110 v
0N
b100000 $"
18
0E
0!
#175000
b11111001011010001011110111110010 \
0:
0d
0c
1_
08
b100000 $"
0!
#180000
b11000101001011100110000110001010 \
b1010110010 G
b1 ""
1p
b0 z
b101011001010 v
b1000 |
0_
b100000 $"
16
b101011001010 -
b1000 0
0!
#185000
b1010110010 F
1u
1c
b1000 a
1N
b10100000110001001011001101000001 \
1C
1q
04
0`
b0 {
b101011001010 w
b1000 }
b1 #"
1_
0p
b11111111 z
b101011001110 v
b1000 |
b0 ""
1E
b11110001100010100110000111100 A
06
b100000 $"
0!
#190000
b1010110011 F
b1101100010010110011010011011000 \
1:
1d
b1000 7
b1000 b
0C
0q
14
1`
b11111111 {
b101011001110 w
b0 #"
xu
b0 ""
0p
0c
b1000 a
1_
b11111111 z
b101011001110 v
0N
b100000 $"
18
0E
0!
#195000
b11110101110001010000110111101011 \
0:
0d
0c
1_
08
b100000 $"
0!
#200000
b11011011000000100110010110110110 \
b11110011011110 G
b1 ""
1p
b0 z
b1111001101111000 v
b1001 |
0_
b100000 $"
16
b1111001101111000 -
b1001 0
0!
#205000
b11110011011110 F
1u
1c
b1001 a
1N
b11100011010010111111100111000110 \
1C
1q
04
0`
b0 {
b1111001101111000 w
b1001 }
b1 #"
1_
0p
b11111111 z
b1111001101111100 v
b1001 |
b0 ""
1E
b1000100100010100001001010001001 A
06
b100000 $"
0!
#210000
b11110011011111 F
b11010111000101010001001110101110 \
1:
1d
b1001 7
b1001 b
0C
0q
14
1`
b11111111 {
b1111001101111100 w
b0 #"
xu
b0 ""
0p
0c
b1001 a
1_
b11111111 z
b1111001101111100 v
0N
b100000 $"
18
0E
0!
#215000
b101110101111001101000001011 \
0:
0d
0c
1_
08
b100000 $"
0!
#220000
b111000100101111011111001110001 \
b10101111 G
b1 ""
1p
b0 z
b1010111100 v
b1010 |
0_
b100000 $"
16
b1010111100 -
b1010 0
0!
#225000
b10101111 F
1u
1c
b1010 a
1N
b11000010111100100100000110000101 \
1C
1q
04
0`
b0 {
b1010111100 w
b1010 }
b1 #"
1_
0p
b11111111 z
b1011000000 v
b1010 |
b0 ""
1E
b10010101000011111101110100101010 A
06
b100000 $"
0!
#230000
b10110000 F
b10100111111100100101010101001111 \
1:
1d
b1010 7
b1010 b
0C
0q
14
1`
b11111111 {
b1011000000 w
b0 #"
xu
b0 ""
0p
0c
b1010 a
1_
b11111111 z
b1011000000 v
0N
b100000 $"
18
0E
0!
#235000
b111111001000110011001001111110 \
0:
0d
0c
1_
08
b100000 $"
0!
#240000
b10001010101010100100101100010101 \
b1100000001110 G
b1 ""
1p
b0 z
b110000000111011 v
b1011 |
0_
b100000 $"
16
b110000000111011 -
b1011 0
0!
#245000
b1100000001110 F
1u
1c
b1011 a
1N
b11111000110110011001101111110001 \
1C
1q
04
0`
b0 {
b110000000111011 w
b1011 }
b1 #"
1_
0p
b11111111 z
b110000000111111 v
b1011 |
b0 ""
1E
b10011101000001100011001100111010 A
06
b100000 $"
0!
#250000
b1100000001111 F
b11101100100111000100101111011001 \
1:
1d
b1011 7
b1011 b
0C
0q
14
1`
b11111111 {
b110000000111111 w
b0 #"
xu
b0 ""
0p
0c
b1011 a
1_
b11111111 z
b110000000111111 v
0N
b100000 $"
18
0E
0!
#255000
b11001111101000010101010110011111 \
0:
0d
0c
1_
08
b100000 $"
0!
#260000
b11000111101110011010000110001111 \
b111011000 G
b1 ""
1p
b0 z
b11101100010 v
b1100 |
0_
b100000 $"
16
b11101100010 -
b1100 0
0!
#265000
b111011000 F
1u
1c
b1100 a
1N
b11111100011011011010100111111000 \
1C
1q
04
0`
b0 {
b11101100010 w
b1100 }
b1 #"
1_
0p
b11111111 z
b11101100110 v
b1100 |
b0 ""
1E
b10100110001101011111101101001100 A
06
b100000 $"
0!
#270000
b111011001 F
b1011011110011010110000010110111 \
1:
1d
b1100 7
b1100 b
0C
0q
14
1`
b11111111 {
b11101100110 w
b0 #"
xu
b0 ""
0p
0c
b1100 a
1_
b11111111 z
b11101100110 v
0N
b100000 $"
18
0E
0!
#275000
b101101110010111100000001011011 \
0:
0d
0c
1_
08
b100000 $"
0!
#280000
b11000100110111100011011110001001 \
b1010110100111 G
b1 ""
1p
b0 z
b101011010011111 v
b1101 |
0_
b100000 $"
16
b101011010011111 -
b1101 0
0!
#285000
b1010110100111 F
1u
1c
b1101 a
1N
b100100101011100011001001001001 \
1C
1q
04
0`
b0 {
b101011010011111 w
b1101 }
b1 #"
1_
0p
b11111111 z
b101011010100011 v
b1101 |
b0 ""
1E
b101110011111011001010001011100 A
06
b100000 $"
0!
#290000
b1010110101000 F
b1101000001000110011111011010000 \
1:
1d
b1101 7
b1101 b
0C
0q
14
1`
b11111111 {
b101011010100011 w
b0 #"
xu
b0 ""
0p
0c
b1101 a
1_
b11111111 z
b101011010100011 v
0N
b100000 $"
18
0E
0!
#295000
b11001011001000010010111110010110 \
0:
0d
0c
1_
08
b100000 $"
0!
#300000
b10000110000111010111111100001100 \
b11000000110101 G
b1 ""
1p
b0 z
b1100000011010111 v
b1110 |
0_
b100000 $"
16
b1100000011010111 -
b1110 0
0!
#305000
b11000000110101 F
1u
1c
b1110 a
1N
b1100001001011001100111011000010 \
1C
1q
04
0`
b0 {
b1100000011010111 w
b1110 }
b1 #"
1_
0p
b11111111 z
b1100000011011011 v
b1110 |
b0 ""
1E
b101000110001111111110001010001 A
06
b100000 $"
0!
#310000
b11000000110110 F
b11100100010101111110110111001000 \
1:
1d
b1110 7
b1110 b
0C
0q
14
1`
b11111111 {
b1100000011011011 w
b0 #"
xu
b0 ""
0p
0c
b1110 a
1_
b11111111 z
b1100000011011011 v
0N
b100000 $"
18
0E
0!
#315000
b10001001000011001101101100010010 \
0:
0d
0c
1_
08
b100000 $"
0!
#320000
b111111000001010000000001111110 \
b1011010011101 G
b1 ""
1p
b0 z
b101101001110111 v
b1111 |
0_
b100000 $"
16
b101101001110111 -
b1111 0
0!
#325000
b1011010011101 F
1u
1c
b1111 a
1N
b10110110111001011000000101101101 \
1C
1q
04
0`
b0 {
b101101001110111 w
b1111 }
b1 #"
1_
0p
b11111111 z
b101101001111011 v
b1111 |
b0 ""
1E
b10011110111100101110110100111101 A
06
b100000 $"
0!
#330000
b1011010011110 F
b10011100110110011110011100111001 \
1:
1d
b1111 7
b1111 b
0C
0q
14
1`
b11111111 {
b101101001111011 w
b0 #"
xu
b0 ""
0p
0c
b1111 a
1_
b11111111 z
b101101001111011 v
0N
b100000 $"
18
0E
0!
#335000
b11000010110110010010111110000101 \
0:
0d
0c
1_
08
b100000 $"
0!
#340000
b111100000101001000100001111000 \
b10001111000111 G
b1 ""
1p
b0 z
b1000111100011111 v
b10000 |
0_
b100000 $"
16
b1000111100011111 -
b10000 0
0!
#345000
b10001111000111 F
1u
1c
b10000 a
1N
b10101101110110100101100101011011 \
1C
1q
04
0`
b0 {
b1000111100011111 w
b10000 }
b1 #"
1_
0p
b11111111 z
b1000111100100011 v
b10000 |
b0 ""
1E
b1101001111010111111011011010011 A
06
b100000 $"
0!
#350000
b10001111001000 F
b10100100100010110100101101001001 \
1:
1d
b10000 7
b10000 b
0C
0q
14
1`
b11111111 {
b1000111100100011 w
b0 #"
xu
b0 ""
0p
0c
b10000 a
1_
b11111111 z
b1000111100100011 v
0N
b100000 $"
18
0E
0!
#355000
b10101100000101010110001101011000 \
0:
0d
0c
1_
08
b100000 $"
0!
#360000
b1000011001111110011100010000110 \
b10101110001111 G
b1 ""
1p
b0 z
b1010111000111111 v
b10001 |
0_
b100000 $"
16
b1010111000111111 -
b10001 0
0!
#365000
b10101110001111 F
1u
1c
b10001 a
1N
b1000111000110100000110010001110 \
1C
1q
04
0`
b0 {
b1010111000111111 w
b10001 }
b1 #"
1_
0p
b11111111 z
b1010111001000011 v
b10001 |
b0 ""
1E
b10010101000011001010111100101010 A
06
b100000 $"
0!
#370000
b10101110010000 F
b1001110001011111111001010011100 \
1:
1d
b10001 7
b10001 b
0C
0q
14
1`
b11111111 {
b1010111001000011 w
b0 #"
xu
b0 ""
0p
0c
b10001 a
1_
b11111111 z
b1010111001000011 v
0N
b100000 $"
18
0E
0!
#375000
b10111001100101100001011101110011 \
0:
0d
0c
1_
08
b100000 $"
0!
#380000
b1010001100010111011010010100011 \
b10011001111110 G
b1 ""
1p
b0 z
b1001100111111010 v
b10010 |
0_
b100000 $"
16
b1001100111111010 -
b10010 0
0!
#385000
b10011001111110 F
1u
1c
b10010 a
1N
b10111100110011010100000101111 \
1C
1q
04
0`
b0 {
b1001100111111010 w
b10010 }
b1 #"
1_
0p
b11111111 z
b1001100111111110 v
b10010 |
b0 ""
1E
b10011011111011011110000100110 A
06
b100000 $"
0!
#390000
b10011001111111 F
b1011001110100101001001010110011 \
1:
1d
b10010 7
b10010 b
0C
0q
14
1`
b11111111 {
b1001100111111110 w
b0 #"
xu
b0 ""
0p
0c
b10010 a
1_
b11111111 z
b1001100111111110 v
0N
b100000 $"
18
0E
0!
#395000
b11111011111110001111110111110111 \
0:
0d
0c
1_
08
b100000 $"
0!
#400000
b1100101100110110011011011001011 \
b1010110010111 G
b1 ""
1p
b0 z
b101011001011111 v
b10011 |
0_
b100000 $"
16
b101011001011111 -
b10011 0
0!
#405000
b1010110010111 F
1u
1c
b10011 a
1N
b1110011000010010001101011100110 \
1C
1q
04
0`
b0 {
b101011001011111 w
b10011 }
b1 #"
1_
0p
b11111111 z
b101011001100011 v
b10011 |
b0 ""
1E
b10100010001010010000110101000100 A
06
b100000 $"
0!
#410000
b1010110011000 F
b10101101001010001101101101011010 \
1:
1d
b10011 7
b10011 b
0C
0q
14
1`
b11111111 {
b101011001100011 w
b0 #"
xu
b0 ""
0p
0c
b10011 a
1_
b11111111 z
b101011001100011 v
0N
b100000 $"
18
0E
0!
#415000
b1101101010100110110110011011010 \
0:
0d
0c
1_
08
b100000 $"
0!
#420000
b110010100111111011011001100101 \
b11000001001010 G
b1 ""
1p
b0 z
b1100000100101001 v
b10100 |
0_
b100000 $"
16
b1100000100101001 -
b10100 0
0!
#425000
b11000001001010 F
1u
1c
b10100 a
1N
b1011010100010101110001010110101 \
1C
1q
04
0`
b0 {
b1100000100101001 w
b10100 }
b1 #"
1_
0p
b11111111 z
b1100000100101101 v
b10100 |
b0 ""
1E
b1110110100000101110001011101101 A
06
b100000 $"
0!
#430000
b11000001001011 F
b1101111101111101001010011011111 \
1:
1d
b10100 7
b10100 b
0C
0q
14
1`
b11111111 {
b1100000100101101 w
b0 #"
xu
b0 ""
0p
0c
b10100 a
1_
b11111111 z
b1100000100101101 v
0N
b100000 $"
18
0E
0!
#435000
b1101000011101000000110011010000 \
0:
0d
0c
1_
08
b100000 $"
0!
#440000
b10010101000010010000101100101010 \
b11001011110 G
b1 ""
1p
b0 z
b1100101111001 v
b10101 |
0_
b100000 $"
16
b1100101111001 -
b10101 0
0!
#445000
b11001011110 F
1u
1c
b10101 a
1N
b11010101111101101010110110101011 \
1C
1q
04
0`
b0 {
b1100101111001 w
b10101 }
b1 #"
1_
0p
b11111111 z
b1100101111101 v
b10101 |
b0 ""
1E
b10100010001100011111111101000100 A
06
b100000 $"
0!
#450000
b11001011111 F
b10000111011011111100111100001110 \
1:
1d
b10101 7
b10101 b
0C
0q
14
1`
b11111111 {
b1100101111101 w
b0 #"
xu
b0 ""
0p
0c
b10101 a
1_
b11111111 z
b1100101111101 v
0N
b100000 $"
18
0E
0!
#455000
b1111110110111110111001011111101 \
0:
0d
0c
1_
08
b100000 $"
0!
#460000
b1100001111100010000001011000011 \
b10101101110111 G
b1 ""
1p
b0 z
b1010110111011100 v
b10110 |
0_
b100000 $"
16
b1010110111011100 -
b10110 0
0!
#465000
b10101101110111 F
1u
1c
b10110 a
1N
b10101011000011101110110101010110 \
1C
1q
04
0`
b0 {
b1010110111011100 w
b10110 }
b1 #"
1_
0p
b11111111 z
b1010110111100000 v
b10110 |
b0 ""
1E
b1001101010111101011110010011010 A
06
b100000 $"
0!
#470000
b10101101111000 F
b10100111011110011110100101001110 \
1:
1d
b10110 7
b10110 b
0C
0q
14
1`
b11111111 {
b1010110111100000 w
b0 #"
xu
b0 ""
0p
0c
b10110 a
1_
b11111111 z
b1010110111100000 v
0N
b100000 $"
18
0E
0!
#475000
b11011011011011111011100110110110 \
0:
0d
0c
1_
08
b100000 $"
0!
#480000
b11100000011101000101000111000 \
b1110110011001 G
b1 ""
1p
b0 z
b111011001100111 v
b10111 |
0_
b100000 $"
16
b111011001100111 -
b10111 0
0!
#485000
b1110110011001 F
1u
1c
b10111 a
1N
b10111100110100011000011101111001 \
1C
1q
04
0`
b0 {
b111011001100111 w
b10111 }
b1 #"
1_
0p
b11111111 z
b111011001101011 v
b10111 |
b0 ""
1E
b101001100010011010000001010 A
06
b100000 $"
0!
#490000
b1110110011010 F
b1011100001010111100010010111000 \
1:
1d
b10111 7
b10111 b
0C
0q
14
1`
b11111111 {
b111011001101011 w
b0 #"
xu
b0 ""
0p
0c
b10111 a
1_
b11111111 z
b111011001101011 v
0N
b100000 $"
18
0E
0!
#495000
b10001111110010110000000100 \
0:
0d
0c
1_
08
b100000 $"
0!
#500000
b101100101101111100101001011001 \
b10111111100101 G
b1 ""
1p
b0 z
b1011111110010100 v
b11000 |
0_
b100000 $"
16
b1011111110010100 -
b11000 0
0!
#505000
b10111111100101 F
1u
1c
b11000 a
1N
b11101101110010110110100111011011 \
1C
1q
04
0`
b0 {
b1011111110010100 w
b11000 }
b1 #"
1_
0p
b11111111 z
b1011111110011000 v
b11000 |
b0 ""
1E
b11001001110001100101110110010011 A
06
b100000 $"
0!
#510000
b10111111100110 F
b100110111111001101111001001101 \
1:
1d
b11000 7
b11000 b
0C
0q
14
1`
b11111111 {
b1011111110011000 w
b0 #"
xu
b0 ""
0p
0c
b11000 a
1_
b11111111 z
b1011111110011000 v
0N
b100000 $"
18
0E
0!
#515000
b111011010001011110001001110110 \
0:
0d
0c
1_
08
b100000 $"
0!
#520000
b11100101001110110100100111001010 \
b10110111110110 G
b1 ""
1p
b0 z
b1011011111011001 v
b11001 |
0_
b100000 $"
16
b1011011111011001 -
b11001 0
0!
#525000
b10110111110110 F
1u
1c
b11001 a
1N
b11011011000101110010110110110110 \
1C
1q
04
0`
b0 {
b1011011111011001 w
b11001 }
b1 #"
1_
0p
b11111111 z
b1011011111011101 v
b11001 |
b0 ""
1E
b110110101001000010011001101101 A
06
b100000 $"
0!
#530000
b10110111110111 F
b11001010100100110111000110010101 \
1:
1d
b11001 7
b11001 b
0C
0q
14
1`
b11111111 {
b1011011111011101 w
b0 #"
xu
b0 ""
0p
0c
b11001 a
1_
b11111111 z
b1011011111011101 v
0N
b100000 $"
18
0E
0!
#535000
b11111011110100100110000111110111 \
0:
0d
0c
1_
08
b100000 $"
0!
#540000
b10110100100110000000011101101001 \
b11010010001 G
b1 ""
1p
b0 z
b1101001000110 v
b11010 |
0_
b100000 $"
16
b1101001000110 -
b11010 0
0!
#545000
b11010010001 F
1u
1c
b11010 a
1N
b1011010011011101011101010110100 \
1C
1q
04
0`
b0 {
b1101001000110 w
b11010 }
b1 #"
1_
0p
b11111111 z
b1101001001010 v
b11010 |
b0 ""
1E
b10000010011101001001101100000100 A
06
b100000 $"
0!
#550000
b11010010010 F
b11000100000000011000110110001000 \
1:
1d
b11010 7
b11010 b
0C
0q
14
1`
b11111111 {
b1101001001010 w
b0 #"
xu
b0 ""
0p
0c
b11010 a
1_
b11111111 z
b1101001001010 v
0N
b100000 $"
18
0E
0!
#555000
b1100011110001010011000011000111 \
0:
0d
0c
1_
08
b100000 $"
0!
#560000
b10111010111001001110000101110 \
b11011001001010 G
b1 ""
1p
b0 z
b1101100100101000 v
b11011 |
0_
b100000 $"
16
b1101100100101000 -
b11011 0
0!
#565000
b11011001001010 F
1u
1c
b11011 a
1N
b100011101111110010000001000 \
1C
1q
04
0`
b0 {
b1101100100101000 w
b11011 }
b1 #"
1_
0p
b11111111 z
b1101100100101100 v
b11011 |
b0 ""
1E
b10110100100000000010000101101 A
06
b100000 $"
0!
#570000
b11011001001011 F
b10001110010000010100010100011100 \
1:
1d
b11011 7
b11011 b
0C
0q
14
1`
b11111111 {
b1101100100101100 w
b0 #"
xu
b0 ""
0p
0c
b11011 a
1_
b11111111 z
b1101100100101100 v
0N
b100000 $"
18
0E
0!
#575000
b1110001101111001000000011100 \
0:
0d
0c
1_
08
b100000 $"
0!
#580000
b11000011001101010110011110000110 \
b10100110111111 G
b1 ""
1p
b0 z
b1010011011111101 v
b11100 |
0_
b100000 $"
16
b1010011011111101 -
b11100 0
0!
#585000
b10100110111111 F
1u
1c
b11100 a
1N
b1101101001101000000100011011010 \
1C
1q
04
0`
b0 {
b1010011011111101 w
b11100 }
b1 #"
1_
0p
b11111111 z
b1010011100000001 v
b11100 |
b0 ""
1E
b10010100100111100000011100101001 A
06
b100000 $"
0!
#590000
b10100111000000 F
b11110101101111100011000111101 \
1:
1d
b11100 7
b11100 b
0C
0q
14
1`
b11111111 {
b1010011100000001 w
b0 #"
xu
b0 ""
0p
0c
b11100 a
1_
b11111111 z
b1010011100000001 v
0N
b100000 $"
18
0E
0!
#595000
b111001111101010000010001110011 \
0:
0d
0c
1_
08
b100000 $"
0!
#600000
b11011101011100011001100110111010 \
b10100111011001 G
b1 ""
1p
b0 z
b1010011101100110 v
b11101 |
0_
b100000 $"
16
b1010011101100110 -
b11101 0
0!
#605000
b10100111011001 F
1u
1c
b11101 a
1N
b10101111001110101011001101011110 \
1C
1q
04
0`
b0 {
b1010011101100110 w
b11101 }
b1 #"
1_
0p
b11111111 z
b1010011101101010 v
b11101 |
b0 ""
1E
b111000010101011100010001110000 A
06
b100000 $"
0!
