simple_pim/model/cfu/sim/iverilog_test/dump.vcd
$date
	Fri Mar 21 14:08:25 2025
$end
$version
	Icarus Verilog
$end
$timescale
	1s
$end
$scope module tb_pim_model $end
$scope module dut $end
$var wire 8 ! addr [7:0] $end
$var wire 1 " clk $end
$var wire 1 # cmd_ready $end
$var wire 1 $ cmd_valid $end
$var wire 32 % d [31:0] $end
$var wire 32 & mac_out [31:0] $end
$var wire 1 ' p_en $end
$var wire 32 ( q [31:0] $end
$var wire 1 ) reset $end
$var wire 1 * rsp_payload_response_ok $end
$var wire 1 + rsp_ready $end
$var wire 1 , rsp_valid $end
$var wire 256 - rwl [255:0] $end
$var wire 1 . w_en $end
$var reg 32 / mac_out_reg [31:0] $end
$var reg 32 0 q_reg [31:0] $end
$var reg 5 1 shift_cnt [4:0] $end
$var reg 32 2 sum_acc_result [31:0] $end
$var integer 32 3 i [31:0] $end
$var integer 32 4 j [31:0] $end
$upscope $end
$upscope $end
$enddefinitions $end
#0
$dumpvars
b100000000 4
b100000 3
bx 2
bx 1
bx 0
bx /
0.
b0 -
0,
0+
1*
1)
bx (
0'
bx &
b0 %
0$
0#
0"
b0 !
$end
#5
b0 &
b0 /
b0 (
b0 0
b0 2
b0 1
b100000 3
1"
#10
b100000 3
0"
0)
#15
b100000000 4
b110101110010111101100001101 -
1'
1.
b10000001 !
b10010000101010011010100100100 %
b100000 3
1"
#20
0"
#25
b1 1
b100000 3
1"
#30
0"
#35
b10 1
b100000000 4
b110110101111100110100001101 -
0.
b1100101 !
b1000110110111111001100110001101 %
b100000 3
1"
#40
0"
#45
b11 1
b100000 3
1"
#50
0"
#55
b100 1
b100000000 4
b1111100111111011110100111111001 -
0'
1.
b111101 !
b111011001000111111000101110110 %
b100000 3
1"
#60
0"
#65
b100000000 4
b0 1
b100000 3
1"
#70
0"
#75
b100000000 4
b1111111111111111111111111111111111111111111111111111111111111111111111111111111111111111111111111111111111111111111111111111111111111111111111111111111111111111111111111111111111111111111111111111111111111111111111111111111110111011110100100111001001110111 -
1'
0.
b11000101 !
b11100011001101110010010011000110 %
b100000 3
1"
#80
0"
#85
b1 1
b100000 3
1"
#90
0"
#95
b0 2
b10 1
b100000000 4
b1111111111111111111111111111111111111111111111111111111111111111111111111111111111111111111111111111111111111111111111111111111111111111111111111111111111111111111111111111111111111111111111111111111111111111111111111111111111110100000000000111101011101000 -
0'
b10001111 !
b10001001001100101101011000010010 %
b100000 3
1"
#100
0"
#105
b0 1
b100000 3
1"
#110
0"
#115
b100000000 4
b1111111111111111111111111111111111111111111111111111111111111111111111111111111111111111111111111111111111111111111111111111111111111111111111111111111111111111111111111111111111111111111111111111111111111111111111111111111110110010101001110010011001100101 -
1'
1.
b1011100 !
b11100010110010100100111011000101 %
b100000 3
1"
#120
0"
#125
b1 1
b100000 3
1"
#130
0"
#135
b0 2
b10 1
b100000000 4
b1010101011110000100010110101010 -
0'
0.
b1010 !
b10110001111011110110001001100011 %
b100000 3
1"
#140
0"
#145
b0 1
b100000 3
1"
#150
0"
#155
b100000000 4
b1111111111111111111111111111111111111111111111111111111111111111111111111111111111111111111111111111111111111111111111111111111111111111111111111111111111111111111111111111111111111111111111111111111111111111111111111111111110101001101001111101011001010011 -
1'
1.
b10010110 !
b11001110110011001100110010011101 %
b100000 3
1"
#160
0"
#165
b1 1
b100000 3
1"
#170
0"
#175
b0 2
b10 1
b100000000 4
b1110111111111110100100011101 -
0'
0.
b11010101 !
b110101100111111101110101101011 %
b100000 3
1"
#180
0"
#185
b0 1
b100000 3
1"
#190
0"
#195
b100000000 4
b1111111111111111111111111111111111111111111111111111111111111111111111111111111111111111111111111111111111111111111111111111111111111111111111111111111111111111111111111111111111111111111111111111111111111111111111111111111110011110001100010100110000111100 -
b100011 !
b11100111110001010111001011001111 %
b100000 3
1"
#200
0"
#205
b100000 3
1"
#210
0"
#215
b100000000 4
b111100001000001111001101111000 -
1.
b10001010 !
b1111001011010001011110111110010 %
b100000 3
1"
#220
0"
#225
b100000000 4
b100000 3
1"
#230
0"
#235
b100000000 4
b1010111000101010001001110101110 -
0.
b11101011 !
b11000100100010100001001010001001 %
b100000 3
1"
#240
0"
#245
b100000 3
1"
#250
0"
#255
b100000000 4
b1000010111100100100000110000101 -
1'
1.
b101010 !
b11011110011101010000001010111100 %
b100000 3
1"
#260
0"
#265
b1 1
b100000 3
1"
#270
0"
#275
b10 1
b100000000 4
b1010101010100100101100010101 -
0'
0.
b111011 !
b100111111100100101010101001111 %
b100000 3
1"
#280
0"
#285
b0 1
b100000 3
1"
#290
0"
#295
b100000000 4
b1001111101000010101010110011111 -
b11011001 !
b1111000110110011001101111110001 %
b100000 3
1"
#300
0"
#305
b100000 3
1"
#310
0"
#315
b100000000 4
b1111111111111111111111111111111111111111111111111111111111111111111111111111111111111111111111111111111111111111111111111111111111111111111111111111111111111111111111111111111111111111111111111111111111111111111111111111111110101110011111011001010001011100 -
1'
1.
b11111000 !
b1000111101110011010000110001111 %
b100000 3
1"
#320
0"
#325
b1 1
b100000 3
1"
#330
0"
#335
b0 2
b10 1
b100000000 4
b1111111111111111111111111111111111111111111111111111111111111111111111111111111111111111111111111111111111111111111111111111111111111111111111111111111111111111111111111111111111111111111111111111111111111111111111111111111111101011111111101100000011010111 -
0'
b10001001 !
b10101101110010111100000001011011 %
b100000 3
1"
#340
0"
#345
b100000000 4
b0 1
b100000 3
1"
#350
0"
#355
b100000000 4
b1100100010101111110110111001000 -
0.
b10010110 !
b10101000110001111111110001010001 %
b100000 3
1"
#360
0"
#365
b100000 3
1"
#370
0"
#375
b100000000 4
b110110111001011000000101101101 -
b111101 !
b10111011100000100101101001110111 %
b100000 3
1"
#380
0"
#385
b111011001000111111000101110110 (
b111011001000111111000101110110 0
b100000 3
1"
#390
0"
#395
b100000000 4
b1111111111111111111111111111111111111111111111111111111111111111111111111111111111111111111111111111111111111111111111111111111111111111111111111111111111111111111111111111111111111111111111111111111111111111111111111111111110111100000101001000100001111000 -
1'
1.
b11111 !
b11100110110011110011100111001 %
b100000 3
1"
#400
0"
#405
b1 1
b100000 3
1"
#410
0"
#415
b11111111111111111111111111111111 2
b10 1
b100000000 4
b101100000101010110001101011000 -
0'
b1001001 !
b101101110110100101100101011011 %
b100000 3
1"
#420
0"
#425
b100000000 4
b0 1
b100000 3
1"
#430
0"
#435
b100000000 4
b1111111111111111111111111111111111111111111111111111111111111111111111111111111111111111111111111111111111111111111111111111111111111111111111111111111111111111111111111111111111111111111111111111111111111111111111111111111110010011011111011011110000100110 -
0.
b10001110 !
b11000011001111110011100010000110 %
b100000 3
1"
#440
0"
#445
b0 (
b0 0
b100000 3
1"
#450
0"
#455
b100000000 4
b1111111111111111111111111111111111111111111111111111111111111111111111111111111111111111111111111111111111111111111111111111111111111111111111111111111111111111111111111111111111111111111111111111111111111111111111111111111110101111110110000101011001011111 -
1'
1.
b10100011 !
b111001100101100001011101110011 %
b100000 3
1"
#460
0"
#465
b11111111111111111111111111111111 &
b11111111111111111111111111111111 /
b11111111111111111111111111111111 2
b1 1
b100000 3
1"
#470
0"
#475
b11111111111111111111111111111110 2
b10 1
b100000000 4
b101101001010001101101101011010 -
0'
b11110111 !
b100010001010010000110101000100 %
b100000 3
1"
#480
0"
#485
b100000000 4
b0 1
b100000 3
1"
#490
0"
#495
b100000000 4
b1111111111111111111111111111111111111111111111111111111111111111111111111111111111111111111111111111111111111111111111111111111111111111111111111111111111111111111111111111111111111111111111111111111111111111111111111111111111011010100010101110001010110101 -
1'
0.
b11101101 !
b10100110011111100000100101001 %
b100000 3
1"
#500
0"
#505
b11111111111111111111111111111110 &
b11111111111111111111111111111110 /
b11111111111111111111111111111110 2
b1 1
b100000 3
1"
#510
0"
#515
b11111111111111111111111111111101 2
b10 1
b100000000 4
b10101000010010000101100101010 -
0'
b1111001 !
b11101111101111101001010011011111 %
b100000 3
1"
#520
0"
#525
b0 1
b100000 3
1"
#530
0"
#535
b100000000 4
b1111111111111111111111111111111111111111111111111111111111111111111111111111111111111111111111111111111111111111111111111111111111111111111111111111111111111111111111111111111111111111111111111111111111111111111111111111111111111110110111110111001011111101 -
b1110 !
b1010101111101101010110110101011 %
b100000 3
1"
#540
0"
#545
b100000 3
1"
#550
0"
#555
b100000000 4
b1111111111111111111111111111111111111111111111111111111111111111111111111111111111111111111111111111111111111111111111111111111111111111111111111111111111111111111111111111111111111111111111111111111111111111111111111111111110000101001100010011010000001010 -
1'
b1010110 !
b11100001111100010000001011000011 %
b100000 3
1"
#560
0"
#565
b11111111111111111111111111111101 &
b11111111111111111111111111111101 /
b11111111111111111111111111111101 2
b1 1
b100000 3
1"
#570
0"
#575
b11111111111111111111111111111100 2
b10 1
b100000000 4
b1001010011101001011111110010100 -
0'
1.
b111000 !
b1011011011011111011100110110110 %
b100000 3
1"
#580
0"
#585
b100000000 4
b0 1
b100000 3
1"
#590
0"
#595
b100000000 4
b1111111111111111111111111111111111111111111111111111111111111111111111111111111111111111111111111111111111111111111111111111111111111111111111111111111111111111111111111111111111111111111111111111111111111111111111111111111110100110111111001101111001001101 -
1'
b100 !
b1001001110001100101110110010011 %
b100000 3
1"
#600
0"
#605
b11111111111111111111111111111100 &
b11111111111111111111111111111100 /
b11111111111111111111111111111100 2
b1 1
b100000 3
1"
#610
0"
#615
b11111111111111111111111111111011 2
b10 1
b100000000 4
b1011011000101110010110110110110 -
0'
0.
b1101101 !
b1101100101100001011011111011001 %
b100000 3
1"
#620
0"
#625
b0 1
b100000 3
1"
#630
0"
#635
b100000000 4
b110100100110000000011101101001 -
1'
b1000110 !
b1001010100100110111000110010101 %
b100000 3
1"
#640
0"
#645
b11111111111111111111111111111011 &
b11111111111111111111111111111011 /
b11111111111111111111111111111011 2
b1 1
b100000 3
1"
#650
0"
#655
b11111111111111111111111111111011 2
b10 1
b100000000 4
b1111111111111111111111111111111111111111111111111111111111111111111111111111111111111111111111111111111111111111111111111111111111111111111111111111111111111111111111111111111111111111111111111111111111111111111111111111111111100011110001010011000011000111 -
b10001000 !
b11011010011011101011101010110100 %
b100000 3
1"
#660
0"
#665
b11111111111111111111111111111011 2
b11 1
b100000 3
1"
#670
0"
#675
b11111111111111111111111111110111 2
b100 1
b100000000 4
b10100100111100000011100101001 -
b1000 !
b10010111010111001001110000101110 %
b100000 3
1"
#680
0"
#685
b11111111111111111111111111110111 &
b11111111111111111111111111110111 /
b11111111111111111111111111101011 2
b101 1
b100000 3
1"
#690
0"
#695
b11111111111111111111111111101011 &
b11111111111111111111111111101011 /
b11111111111111111111111111011111 2
b110 1
b100000000 4
b110011010011101010011101100110 -
b10000110 !
b10001110001101111001000000011100 %
b100000 3
1"
#700
0"
#705
b11111111111111111111111111011111 &
b11111111111111111111111111011111 /
b11111111111111111111111111010011 2
b111 1
b100000 3
1"
#710
0"
#715
b11111111111111111111111111010011 &
b11111111111111111111111111010011 /
b11111111111111111111111111000111 2
b1000 1
b100000000 4
b1111101010001110111100111111010 -
0'
b1110011 !
b10111000010101011100010001110000 %
b100000 3
1"
#720
0"
#725
b0 1
b100000 3
1"
#730
0"
#735
b100000000 4
b1001011001001110011011110010110 -
1'
1.
b11010 !
b1101010100011100000010111010101 %
b100000 3
1"
#740
0"
#745
b11111111111111111111111111000111 &
b11111111111111111111111111000111 /
b11111111111111111111111111000111 2
b1 1
b100000 3
1"
#750
0"
#755
b11111111111111111111111111000111 2
b10 1
b100000000 4
b1101110010111110000111111011100 -
0.
b100110 !
b1100000001110010010000111000000 %
b100000 3
1"
#760
0"
#765
b11111111111111111111111111000111 2
b11 1
b100000 3
1"
#770
0"
#775
b11111111111111111111111111000111 2
b100 1
b100000000 4
b1111111111111111111111111111111111111111111111111111111111111111111111111111111111111111111111111111111111111111111111111111111111111111111111111111111111111111111111111111111111111111111111111111111111111111111111111111111111100111110000111011011011001111 -
b1111000 !
b1000011011000010101011110000110 %
b100000 3
1"
#780
0"
#785
b11111111111111111111111111000111 2
b101 1
b100000 3
1"
#790
0"
#795
b11111111111111111111111110110111 2
b110 1
b100000000 4
b1111111111111111111111111111111111111111111111111111111111111111111111111111111111111111111111111111111111111111111111111111111111111111111111111111111111111111111111111111111111111111111111111111111111111111111111111111111111010000111101010111100010100001 -
1.
b11111010 !
b111100111011010010101101111001 %
b100000 3
1"
#800
0"
#805
b11111111111111111111111110110111 &
b11111111111111111111111110110111 /
b11111111111111111111111110000111 2
b111 1
b100000 3
1"
#810
0"
#815
b11111111111111111111111110000111 &
b11111111111111111111111110000111 /
b11111111111111111111111100010111 2
b1000 1
b100000000 4
b1111111111111111111111111111111111111111111111111111111111111111111111111111111111111111111111111111111111111111111111111111111111111111111111111111111111111111111111111111111111111111111111111111111111111111111111111111111110010100100110101000101000101001 -
b1010000 !
b1000011011101111001000110000110 %
b100000 3
1"
#820
0"
#825
b11111111111111111111111100010111 &
b11111111111111111111111100010111 /
b11111111111111111111111000100111 2
b1001 1
b100000 3
1"
#830
0"
#835
b11111111111111111111111000100111 &
b11111111111111111111111000100111 /
b11111111111111111111110000110111 2
b1010 1
b100000000 4
b1111111111111111111111111111111111111111111111111111111111111111111111111111111111111111111111111111111111111111111111111111111111111111111111111111111111111111111111111111111111111111111111111111111111111111111111111111111110111001100011000100001001110011 -
0.
b11000101 !
b1100000101100010111010111000001 %
b100000 3
1"
#840
0"
#845
b11111111111111111111110000110111 &
b11111111111111111111110000110111 /
b11111111111111111111100001000111 2
b1011 1
b100000 3
1"
#850
0"
#855
b11111111111111111111100001000111 &
b11111111111111111111100001000111 /
b11111111111111111111000001010111 2
b1100 1
b100000000 4
b1010100100111101111110110101001 -
0'
b10001010 !
b11110110001000101110011011101100 %
b100000 3
1"
#860
0"
#865
b0 1
b1111001011010001011110111110010 (
b1111001011010001011110111110010 0
b100000 3
1"
#870
0"
#875
b100000000 4
b10101001011111011010100101010 -
1'
b1110 !
b11010000110010101000110010100001 %
b100000 3
1"
#880
0"
#885
b11111111111111111111000001010111 &
b11111111111111111111000001010111 /
b11111111111111111111000001010111 2
b1 1
b100000 3
1"
#890
0"
#895
b11111111111111111111000001010111 2
b10 1
b100000000 4
b1111111111111111111111111111111111111111111111111111111111111111111111111111111111111111111111111111111111111111111111111111111111111111111111111111111111111111111111111111111111111111111111111111111111111111111111111111111110111100110011111010100001111001 -
0'
b10001101 !
b10101010110100001110100101010 %
b100000 3
1"
#900
0"
#905
b0 1
b0 (
b0 0
b100000 3
1"
#910
0"
#915
b100000000 4
b1111111111111111111111111111111111111111111111111111111111111111111111111111111111111111111111111111111111111111111111111111111111111111111111111111111111111111111111111111111111111111111111111111111111111111111111111111111111100011101101111010111011000111 -
1'
1.
b11001010 !
b1100100011001001110001111001000 %
b100000 3
1"
#920
0"
#925
b11111111111111111111000001010111 2
b1 1
b100000 3
1"
#930
0"
#935
b11111111111111111111000001010110 2
b10 1
b100000000 4
b1001001001011111101001110010010 -
0.
b10111010 !
b1011011000010111101110110110110 %
b100000 3
1"
#940
0"
#945
b11111111111111111111000001010110 &
b11111111111111111111000001010110 /
b11111111111111111111000001010011 2
b11 1
b100000 3
1"
#950
0"
#955
b11111111111111111111000001010011 &
b11111111111111111111000001010011 /
b11111111111111111111000001010000 2
b100 1
b100000000 4
b1111111111111111111111111111111111111111111111111111111111111111111111111111111111111111111111111111111111111111111111111111111111111111111111111111111111111111111111111111111111111111111111111111111111111111111111111111111111111001001001111001010011110010 -
0'
b1111111 !
b11011010001001101001101010110100 %
b100000 3
1"
#960
0"
#965
b0 1
b100000 3
1"
#970
0"
#975
b100000000 4
b1100101010000111100111111001010 -
b10111101 !
b11001010001010010000100110010 %
b100000 3
1"
#980
0"
#985
b100000 3
1"
#990
0"
#995
b100000000 4
b1111111111111111111111111111111111111111111111111111111111111111111111111111111111111111111111111111111111111111111111111111111111111111111111111111111111111111111111111111111111111111111111111111111111111111111111111111111110000101111001010001111000001011 -
1'
b10100001 !
b1010100101010000111100110101001 %
b100000 3
1"
#1000
0"
#1005
b11111111111111111111000001010000 &
b11111111111111111111000001010000 /
b11111111111111111111000001010000 2
b1 1
b100000 3
1"
#1010
0"
#1015
b11111111111111111111000001001111 2
b10 1
b100000000 4
b1111111111111111111111111111111111111111111111111111111111111111111111111111111111111111111111111111111111111111111111111111111111111111111111111111111111111111111111111111111111111111111111111111111111111111111111111111111111000111111010000101011010001111 -
b11001001 !
b11110111100000101001000011101111 %
b100000 3
1"
#1020
0"
#1025
b11111111111111111111000001001111 &
b11111111111111111111000001001111 /
b11111111111111111111000001001100 2
b11 1
b100000 3
1"
#1030
0"
#1035
b11111111111111111111000001001100 &
b11111111111111111111000001001100 /
b11111111111111111111000001000101 2
b100 1
b100000000 4
b1001001001111100100010110010010 -
b10001000 !
b110101110011011011111101101011 %
b100000 3
1"
#1040
0"
#1045
b11111111111111111111000001000101 &
b11111111111111111111000001000101 /
b11111111111111111111000000110110 2
b101 1
b100000 3
1"
#1050
0"
#1055
b11111111111111111111000000110110 &
b11111111111111111111000000110110 /
b11111111111111111111000000100111 2
b110 1
b100000000 4
b1111111111111111111111111111111111111111111111111111111111111111111111111111111111111111111111111111111111111111111111111111111111111111111111111111111111111111111111111111111111111111111111111111111111111111111111111111111110001111000111001111011000011110 -
0'
1.
b101101 !
b10100010001001101111100101000 %
b100000 3
1"
#1060
0"
#1065
b100000000 4
b0 1
b100000 3
1"
#1070
0"
#1075
b100000000 4
b1111111111111111111111111111111111111111111111111111111111111111111111111111111111111111111111111111111111111111111111111111111111111111111111111111111111111111111111111111111111111111111111111111111111111111111111111111111111000011011101100001110010000110 -
1'
0.
b11101100 !
b110101100110000010100001101 %
b100000 3
1"
#1080
0"
#1085
b11111111111111111111000000100111 &
b11111111111111111111000000100111 /
b11111111111111111111000000100111 2
b1 1
b100000 3
1"
#1090
0"
#1095
b11111111111111111111000000100110 2
b10 1
b100000000 4
b1111111111111111111111111111111111111111111111111111111111111111111111111111111111111111111111111111111111111111111111111111111111111111111111111111111111111111111111111111111111111111111111111111111111111111111111111111111110101011000110010110001001010110 -
b111011 !
b10100000110000000010010001000001 %
b100000 3
1"
#1100
0"
#1105
b11111111111111111111000000100110 &
b11111111111111111111000000100110 /
b11111111111111111111000000100011 2
b11 1
b100000 3
1"
#1110
0"
#1115
b11111111111111111111000000100011 &
b11111111111111111111000000100011 /
b11111111111111111111000000011100 2
b100 1
b100000000 4
b1111111111111111111111111111111111111111111111111111111111111111111111111111111111111111111111111111111111111111111111111111111111111111111111111111111111111111111111111111111111111111111111111111111111111111111111111111111111101100010100001011010011011000 -
b11100010 !
b10101101101011000010001001011011 %
b100000 3
1"
#1120
0"
#1125
b11111111111111111111000000011100 &
b11111111111111111111000000011100 /
b11111111111111111111000000001101 2
b101 1
b100000 3
1"
#1130
0"
#1135
b11111111111111111111000000001101 &
b11111111111111111111000000001101 /
b11111111111111111110111111101110 2
b110 1
b100000000 4
b1111111111111111111111111111111111111111111111111111111111111111111111111111111111111111111111111111111111111111111111111111111111111111111111111111111111111111111111111111111111111111111111111111111111111111111111111111111111010000110001011101110010100001 -
1.
b10111000 !
b1001001111100100110100010010 %
b100000 3
1"
#1140
0"
#1145
b11111111111111111110111111101110 &
b11111111111111111110111111101110 /
b11111111111111111110111110101111 2
b111 1
b100000 3
1"
#1150
0"
#1155
b11111111111111111110111110101111 &
b11111111111111111110111110101111 /
b11111111111111111110111100110000 2
b1000 1
b100000000 4
b1010000110101011111100110100001 -
0.
b10000001 !
b10101100010010000111100101011 %
b100000 3
1"
#1160
0"
#1165
b11111111111111111110111100110000 &
b11111111111111111110111100110000 /
b11111111111111111110111000110001 2
b1001 1
b100000 3
1"
#1170
0"
#1175
b11111111111111111110111000110001 &
b11111111111111111110111000110001 /
b11111111111111111110110100110010 2
b1010 1
b100000000 4
b1010011011101001001100010100 -
0'
b100 !
b10001111100011000110111000011111 %
b100000 3
1"
#1180
0"
#1185
b0 1
b100000 3
1"
#1190
0"
#1195
b100000000 4
b1111111111111111111111111111111111111111111111111111111111111111111111111111111111111111111111111111111111111111111111111111111111111111111111111111111111111111111111111111111111111111111111111111111111111111111111111111111111110110110000111000111011101101 -
1'
1.
b10010110 !
b10001001000110011011010000010010 %
b100000 3
1"
#1200
0"
#1205
b11111111111111111110110100110010 &
b11111111111111111110110100110010 /
b11111111111111111110110100110010 2
b1 1
b100000 3
1"
#1210
0"
#1215
b11111111111111111110110100110001 2
b10 1
b100000000 4
b1000010010010011111111110000100 -
b11110101 !
b10101100010110010101100101011 %
b100000 3
1"
#1220
0"
#1225
b11111111111111111110110100110001 &
b11111111111111111110110100110001 /
b11111111111111111110110100101110 2
b11 1
b100000 3
1"
#1230
0"
#1235
b11111111111111111110110100101110 &
b11111111111111111110110100101110 /
b11111111111111111110110100101011 2
b100 1
b100000000 4
b1101101111001011011101111011011 -
b11100111 !
b11010011101010001110010010100111 %
b100000 3
1"
#1240
0"
#1245
b11111111111111111110110100101011 &
b11111111111111111110110100101011 /
b11111111111111111110110100101000 2
b101 1
b100000 3
1"
#1250
0"
#1255
b11111111111111111110110100101000 &
b11111111111111111110110100101000 /
b11111111111111111110110100100101 2
b110 1
b100000000 4
b1111101001010100100010111111010 -
0'
b1010001 !
b1100100101110100000111111001001 %
b100000 3
1"
#1260
0"
#1265
b100000000 4
b0 1
b100000 3
1"
#1270
0"
#1275
b100000000 4
b1111111111111111111111111111111111111111111111111111111111111111111111111111111111111111111111111111111111111111111111111111111111111111111111111111111111111111111111111111111111111111111111111111111111111111111111111111111111111111010011110011110011111110 -
0.
b10000011 !
b10100010111001100010000001000101 %
b100000 3
1"
#1280
0"
#1285
b100000 3
1"
#1290
0"
#1295
b100000000 4
b11100011100011001011100111000 -
b1101111 !
b10110100010101011111001001101000 %
b100000 3
1"
#1300
0"
#1305
b100000 3
1"
#1310
0"
#1315
b100000000 4
b1100000001010000011000111000000 -
1'
b101000 !
b100000011101101001000101000000 %
b100000 3
1"
#1320
0"
#1325
b11111111111111111110110100100101 &
b11111111111111111110110100100101 /
b11111111111111111110110100100101 2
b1 1
b100000 3
1"
#1330
0"
#1335
b11111111111111111110110100100101 2
b10 1
b100000000 4
b10101001000011001001100101010 -
0'
b111001 !
b111010011000100101111101110100 %
b100000 3
1"
#1340
0"
#1345
b0 1
b100000 3
1"
#1350
0"
#1355
b100000000 4
b1111111111111111111111111111111111111111111111111111111111111111111111111111111111111111111111111111111111111111111111111111111111111111111111111111111111111111111111111111111111111111111111111111111111111111111111111111111110100001100010111110111001000011 -
1'
1.
b10101 !
b110001001001001101001101100010 %
b100000 3
1"
#1360
0"
#1365
b11111111111111111110110100100101 2
b1 1
b100000 3
1"
#1370
0"
#1375
b11111111111111111110110100100100 2
b10 1
b100000000 4
b1111111111111111111111111111111111111111111111111111111111111111111111111111111111111111111111111111111111111111111111111111111111111111111111111111111111111111111111111111111111111111111111111111111111111111111111111111111111000110100111011010001010001101 -
b10000110 !
b1100100101101011110001111001001 %
b100000 3
1"
#1380
0"
#1385
b11111111111111111110110100100100 &
b11111111111111111110110100100100 /
b11111111111111111110110100100001 2
b11 1
b100000 3
1"
#1390
0"
#1395
b11111111111111111110110100100001 &
b11111111111111111110110100100001 /
b11111111111111111110110100011010 2
b100 1
b100000000 4
b1111111111111111111111111111111111111111111111111111111111111111111111111111111111111111111111111111111111111111111111111111111111111111111111111111111111111111111111111111111111111111111111111111111111111111111111111111111110111000101011011110011001110001 -
0'
0.
b111 !
b10101101011001111110001001011010 %
b100000 3
1"
#1400
0"
#1405
b0 1
b100000 3
1"
#1410
0"
#1415
b100000000 4
b1111111111111111111111111111111111111111111111111111111111111111111111111111111111111111111111111111111111111111111111111111111111111111111111111111111111111111111111111111111111111111111111111111111111111111111111111111111110101110011110000101100001011100 -
1.
b10110110 !
b10011101111000010111110000111011 %
b100000 3
1"
#1420
0"
#1425
b100000000 4
b100000 3
1"
#1430
0"
#1435
b100000000 4
b1111111111111111111111111111111111111111111111111111111111111111111111111111111111111111111111111111111111111111111111111111111111111111111111111111111111111111111111111111111111111111111111111111111111111111111111111111111111011010001111011000110010110100 -
0.
b100000 !
b101010101110001111011101010101 %
b100000 3
1"
#1440
0"
#1445
b100000 3
1"
#1450
0"
#1455
b100000000 4
b1111111111111111111111111111111111111111111111111111111111111111111111111111111111111111111111111111111111111111111111111111111111111111111111111111111111111111111111111111111111111111111111111111111111111111111111111111111111001111011000111101101010011110 -
1'
1.
b1101 !
b1101110100010101111010111011101 %
b100000 3
1"
#1460
0"
#1465
b11111111111111111110110100011010 &
b11111111111111111110110100011010 /
b11111111111111111110110100011010 2
b1 1
b100000 3
1"
#1470
0"
#1475
b11111111111111111110110100011000 2
b10 1
b100000000 4
b1110001110000010010100111100011 -
b1111011 !
b11111110111100000110010011111101 %
b100000 3
1"
#1480
0"
#1485
b11111111111111111110110100011000 &
b11111111111111111110110100011000 /
b11111111111111111110110100010010 2
b11 1
b100000 3
1"
#1490
0"
#1495
b11111111111111111110110100010010 &
b11111111111111111110110100010010 /
b11111111111111111110110100001100 2
b100 1
b100000000 4
b1111111111111111111111111111111111111111111111111111111111111111111111111111111111111111111111111111111111111111111111111111111111111111111111111111111111111111111111111111111111111111111111111111111111111111111111111111111111110000000111010011010011100000 -
0.
b10110001 !
b1110100100100100001100011101 %
b100000 3
1"
#1500
0"
#1505
b11111111111111111110110100001100 &
b11111111111111111110110100001100 /
b11111111111111111110110100000110 2
b101 1
b100000 3
1"
#1510
0"
#1515
b11111111111111111110110100000110 &
b11111111111111111110110100000110 /
b11111111111111111110110011100000 2
b110 1
b100000000 4
b1111111111111111111111111111111111111111111111111111111111111111111111111111111111111111111111111111111111111111111111111111111111111111111111111111111111111111111111111111111111111111111111111111111111111111111111111111111110101001010111111100010001010010 -
b1010010 !
b11110110101000010111100011101101 %
b100000 3
1"
#1520
0"
#1525
b11111111111111111110110011100000 &
b11111111111111111110110011100000 /
b11111111111111111110110001111010 2
b111 1
b100000 3
1"
#1530
0"
#1535
b11111111111111111110110001111010 &
b11111111111111111110110001111010 /
b11111111111111111110101110010100 2
b1000 1
b100000000 4
b1011111010101100000100010111 -
0'
b1000110 !
b1000010000110011110011110000100 %
b100000 3
1"
#1540
0"
#1545
b0 1
b100000 3
1"
#1550
0"
#1555
b100000000 4
b1111111111111111111111111111111111111111111111111111111111111111111111111111111111111111111111111111111111111111111111111111111111111111111111111111111111111111111111111111111111111111111111111111111111111111111111111111111110110000010100100000001001100000 -
b10000100 !
b110101001011010110000101101010 %
b100000 3
1"
#1560
0"
#1565
b100000 3
1"
#1570
0"
#1575
b100000000 4
b11001000001011000001100110010 -
1'
b10001011 !
b1011101010010100100110110111010 %
b100000 3
1"
#1580
0"
#1585
b11111111111111111110101110010100 &
b11111111111111111110101110010100 /
b11111111111111111110101110010100 2
b1 1
b100000 3
1"
#1590
0"
#1595
b11111111111111111110101110010100 2
b10 1
b100000000 4
b100101111100100000001101001011 -
b1001001 !
b11010001000001010000010010100010 %
b100000 3
1"
#1600
0"
#1605
b11111111111111111110101110010100 2
b11 1
b100000 3
1"
#1610
0"
#1615
b11111111111111111110101110010100 2
b100 1
b100000000 4
b1111111111111111111111111111111111111111111111111111111111111111111111111111111111111111111111111111111111111111111111111111111111111111111111111111111111111111111111111111111111111111111111111111111111111111111111111111111111011010000001011000101010110100 -
b1000111 !
b10101110011010000011000001011100 %
b100000 3
1"
#1620
0"
#1625
b11111111111111111110101110010100 2
b101 1
b100000 3
1"
#1630
0"
#1635
b11111111111111111110101101110100 2
b110 1
b100000000 4
b1111111111111111111111111111111111111111111111111111111111111111111111111111111111111111111111111111111111111111111111111111111111111111111111111111111111111111111111111111111111111111111111111111111111111111111111111111111110110101001000100100000001101010 -
b101100 !
b1101000010100011110010111010000 %
b100000 3
1"
#1640
0"
#1645
b11111111111111111110101101110100 &
b11111111111111111110101101110100 /
b11111111111111111110101100010100 2
b111 1
b100000 3
1"
#1650
0"
#1655
b11111111111111111110101100010100 &
b11111111111111111110101100010100 /
b11111111111111111110101000110100 2
b1000 1
b100000000 4
b1110110001010010101101111101100 -
1.
b11101000 !
b1000100101011111100100010001 %
b100000 3
1"
#1660
0"
#1665
b11111111111111111110101000110100 &
b11111111111111111110101000110100 /
b11111111111111111110100001010100 2
b1001 1
b100000 3
1"
#1670
0"
#1675
b11111111111111111110100001010100 &
b11111111111111111110100001010100 /
b11111111111111111110011001110100 2
b1010 1
b100000000 4
b1111111111111111111111111111111111111111111111111111111111111111111111111111111111111111111111111111111111111111111111111111111111111111111111111111111111111111111111111111111111111111111111111111111111111111111111111111111111101111100000110111001011011111 -
b10100100 !
b10001111111100000010100100011 %
b100000 3
1"
#1680
0"
#1685
b11111111111111111110011001110100 &
b11111111111111111110011001110100 /
b11111111111111111110010010010100 2
b1011 1
b100000 3
1"
#1690
0"
#1695
b11111111111111111110010010010100 &
b11111111111111111110010010010100 /
b11111111111111111101101010110100 2
b1100 1
b100000000 4
b1000001000100000011100110000010 -
0'
b1100111 !
b11101010010110000001010011010100 %
b100000 3
1"
#1700
0"
#1705
b100000000 4
b0 1
b100000 3
1"
#1710
0"
#1715
b100000000 4
b1001001101100010110111110010011 -
0.
b11011001 !
b100100110100101011111101001001 %
b100000 3
1"
#1720
0"
#1725
b100000 3
1"
#1730
0"
#1735
b100000000 4
b11101001111111001110100111010 -
1'
b101010 !
b1110001101101000110000111100011 %
b100000 3
1"
#1740
0"
#1745
b11111111111111111101101010110100 &
b11111111111111111101101010110100 /
b11111111111111111101101010110100 2
b1 1
b100000 3
1"
#1750
0"
